Mohamed Habila 10650
Merit Vector 9783
Mohamed Eid 9650
Ali_Rihan Salah 8826
Rita Samir 8913
elwa 3300
killer 2127
finaltest 1838
<<<<<<< HEAD
Merit 638
=======
x 1466
>>>>>>> a2caf5414f091f88db0750df87d5fc0ef0f1c603
xcv 100
kakakaka 100
